{
  "$schema": "../../node_modules/ng-packagr/ng-package.schema.json",
  "dest": "../../dist/hues",
  "lib": {
    "entryFile": "src/public_api.ts",
    "umdModuleIds": {
      "@ngcore/core": "ngcore-core"
    }
  }
}